%YAML 1.1
%TAG !u! tag:unity3d.com,2011:
--- !u!1045 &1
EditorBuildSettings:
  m_ObjectHideFlags: 0
  serializedVersion: 2
  m_Scenes:
  - enabled: 0
    path: Assets/Scenes/MovmentTest.unity
    guid: 421f21fbb1e63c04d943f8c0af4306d1
  - enabled: 1
    path: Assets/Scenes/Test2.unity
    guid: 7b8e99bb25945f5419dc54be46f56c9d
  m_configObjects:
    Unity.XR.Oculus.Settings: {fileID: 11400000, guid: bc24445b7f426f645afcab4e570df4b2, type: 2}
    com.unity.xr.management.loader_settings: {fileID: 11400000, guid: 202cf317b977eaa4f97847c4d14ea347, type: 2}
